KP;Session;Order;TestTime;Lapses;Stimulationsnacht;Stimulation
1;1;2;1;0;1;1
1;1;2;1;0;1;1
1;1;2;1;0;1;1
1;1;2;2;1;1;1
1;1;2;3;0;1;1
1;1;2;4;0;1;1
1;2;2;1;0;1;0
1;2;2;2;0;1;0
1;2;2;3;0;1;0
1;2;2;4;1;1;0
2;1;1;1;0;2;0
2;1;1;2;2;2;0
2;1;1;3;1;2;0
2;1;1;4;1;2;0
2;2;1;1;0;2;1
2;2;1;2;1;2;1
2;2;1;3;2;2;1
2;2;1;4;0;2;1
3;1;1;1;0;2;0
3;1;1;2;0;2;0
3;1;1;3;1;2;0
3;1;1;4;0;2;0
3;2;1;1;1;2;1
3;2;1;2;1;2;1
3;2;1;3;0;2;1
3;2;1;4;2;2;1
4;1;2;1;0;1;1
4;1;2;2;0;1;1
4;1;2;3;0;1;1
4;1;2;4;0;1;1
4;2;2;1;0;1;0
4;2;2;2;0;1;0
4;2;2;3;0;1;0
4;2;2;4;0;1;0
5;1;2;1;1;1;1
5;1;2;2;0;1;1
5;1;2;3;0;1;1
5;1;2;4;0;1;1
5;2;2;1;0;1;0
5;2;2;2;0;1;0
5;2;2;3;1;1;0
5;2;2;4;0;1;0
6;1;1;1;0;2;0
6;1;1;2;1;2;0
6;1;1;3;1;2;0
6;1;1;4;2;2;0
6;2;1;1;0;2;1
6;2;1;2;0;2;1
6;2;1;3;3;2;1
6;2;1;4;1;2;1
